Predicting Hourly Electricity Demand in Ontario
…
## Obtain predicted values

predicted_values <- model %>% predict(test_dataset)

## Predicted vs Observed

bind_cols(
  predicted_values = predicted_values,
  true_values = test_ds$Total_Hourly_Usage_Residential[-c(1:sequence_length, seq(
    to = nrow(test_ds),
    length.out = (sequence_length - 1)
  ))]
)

## # A tibble: 30,348 x 2
##    predicted_values[,1] true_values
##                   <dbl>       <dbl>
##  1               0.0201      0.0235
##  2               0.0204      0.0237
##  3               0.0149      0.0242
##  4               0.0157      0.0248
##  5               0.0148      0.0253
##  6               0.0154      0.0252
##  7               0.0145      0.0248
##  8               0.0143      0.0245
##  9               0.0201      0.0243
## 10               0.0192      0.0229
## # ... with 30,338 more rows
…
